%YAML 1.1
%TAG !u! tag:unity3d.com,2011:
--- !u!1045 &1
EditorBuildSettings:
  m_ObjectHideFlags: 0
  serializedVersion: 2
  m_Scenes:
  - enabled: 1
    path: Assets/_Scenes/Main.unity
    guid: baa13160f4bb3464cb4007262a572760
  - enabled: 1
    path: Assets/_Scenes/Credits.unity
    guid: 0c5769b0eb9124915a973c97a48def64
  - enabled: 0
    path: Assets/_Scenes/storeroom_added.unity
    guid: 602eaf68fbd84fd428015121ed4c13af
  - enabled: 0
    path: Assets/_Scenes/testscene.unity
    guid: 3a04ddbcd9fe451499d929db8682ab73
  m_configObjects: {}
