%YAML 1.1
%TAG !u! tag:unity3d.com,2011:
--- !u!1 &677599165633840464
GameObject:
  m_ObjectHideFlags: 0
  m_CorrespondingSourceObject: {fileID: 0}
  m_PrefabInstance: {fileID: 0}
  m_PrefabAsset: {fileID: 0}
  serializedVersion: 6
  m_Component:
  - component: {fileID: 7453518088950115584}
  - component: {fileID: 1225981970973215022}
  - component: {fileID: 3450227217494805022}
  m_Layer: 0
  m_Name: RoomObject
  m_TagString: Untagged
  m_Icon: {fileID: 0}
  m_NavMeshLayer: 0
  m_StaticEditorFlags: 0
  m_IsActive: 1
--- !u!4 &7453518088950115584
Transform:
  m_ObjectHideFlags: 0
  m_CorrespondingSourceObject: {fileID: 0}
  m_PrefabInstance: {fileID: 0}
  m_PrefabAsset: {fileID: 0}
  m_GameObject: {fileID: 677599165633840464}
  m_LocalRotation: {x: 0, y: 0, z: 0, w: 1}
  m_LocalPosition: {x: 1.4717307, y: 8.82, z: 0.31218624}
  m_LocalScale: {x: 1, y: 1, z: 1}
  m_Children: []
  m_Father: {fileID: 0}
  m_RootOrder: 0
  m_LocalEulerAnglesHint: {x: 0, y: 0, z: 0}
--- !u!114 &1225981970973215022
MonoBehaviour:
  m_ObjectHideFlags: 0
  m_CorrespondingSourceObject: {fileID: 0}
  m_PrefabInstance: {fileID: 0}
  m_PrefabAsset: {fileID: 0}
  m_GameObject: {fileID: 677599165633840464}
  m_Enabled: 1
  m_EditorHideFlags: 0
  m_Script: {fileID: 11500000, guid: 8daf41cd309da6340b495c2fb3323652, type: 3}
  m_Name: 
  m_EditorClassIdentifier: 
  baseCube: {fileID: 2611617295308128510, guid: 1e7c133a0ac00d14ca514ce1b1d42563,
    type: 3}
  charactersDepthOffset: -1
  wid: 12
  hei: 3
  dep: 4
  wallThickness: 0.2
  floorThickness: 0.5
  clickableZone: {fileID: 0}
--- !u!114 &3450227217494805022
MonoBehaviour:
  m_ObjectHideFlags: 0
  m_CorrespondingSourceObject: {fileID: 0}
  m_PrefabInstance: {fileID: 0}
  m_PrefabAsset: {fileID: 0}
  m_GameObject: {fileID: 677599165633840464}
  m_Enabled: 1
  m_EditorHideFlags: 0
  m_Script: {fileID: 11500000, guid: ac457ece01b403e47b997ed99cc5ac32, type: 3}
  m_Name: 
  m_EditorClassIdentifier: 
